[gd_scene load_steps=4 format=2]

[sub_resource type="GDScript" id=1]
script/source = "extends Enemy2D
"

[sub_resource type="RectangleShape2D" id=2]
extents = Vector2( 12, 12 )

[sub_resource type="QuadMesh" id=3]
size = Vector2( 24, 24 )

[node name="TankEnemy" type="KinematicBody2D"]
script = SubResource( 1 )

[node name="CollisionShape2D" type="CollisionShape2D" parent="."]
shape = SubResource( 2 )

[node name="MeshInstance2D" type="MeshInstance2D" parent="."]
self_modulate = Color( 0.223529, 0.301961, 0.133333, 1 )
mesh = SubResource( 3 )
