[gd_scene load_steps=7 format=2]

[ext_resource path="res://towers/ShotgunTower.gd" type="Script" id=1]
[ext_resource path="res://assets/towers_temp.svg" type="Texture" id=2]

[sub_resource type="RectangleShape2D" id=1]
extents = Vector2( 16, 16 )

[sub_resource type="CircleShape2D" id=2]
radius = 274.0

[sub_resource type="AtlasTexture" id=3]
atlas = ExtResource( 2 )
region = Rect2( 0, 0, 32, 32 )

[sub_resource type="AtlasTexture" id=4]
atlas = ExtResource( 2 )
region = Rect2( 64, 0, 32, 32 )

[node name="ShotgunTower" type="StaticBody2D"]
collision_layer = 4
collision_mask = 8
script = ExtResource( 1 )

[node name="CollisionShape2D" type="CollisionShape2D" parent="."]
shape = SubResource( 1 )

[node name="RangeArea" type="Area2D" parent="."]
collision_layer = 0
collision_mask = 8

[node name="CollisionShape2D" type="CollisionShape2D" parent="RangeArea"]
shape = SubResource( 2 )

[node name="Base" type="Sprite" parent="."]
texture = SubResource( 3 )

[node name="Head" type="Sprite" parent="."]
texture = SubResource( 4 )
