[gd_scene load_steps=3 format=2]

[ext_resource path="res://default_theme.tres" type="Theme" id=1]

[sub_resource type="GDScript" id=1]
script/source = "extends PanelContainer

func _ready() -> void:
	for tower_name in TowerManager.tower_info_list:
		var tower_info = TowerManager.tower_info_list[tower_name]
		
		var tower_hold_button := Button.new()
		tower_hold_button.text = str(tower_info.name, \": $\", tower_info.price)
		
		$MarginContainer/TowerList.add_child_below_node($MarginContainer/TowerList/TowerHold, tower_hold_button)
		
		tower_hold_button.connect(\"pressed\", self, \"hold_tower\", [tower_name])
	
	TowerManager.connect(\"held_tower_changed\", self, \"on_held_tower_changed\")

func on_held_tower_changed(new_tower: String) -> void:
	if new_tower == \"\":
		$MarginContainer/TowerList/TowerHold.text = \"Select tower:\"
	else:
		var tower_info = TowerManager.get_tower_info_for(new_tower)
		$MarginContainer/TowerList/TowerHold.text = str(\"Selected tower: \", tower_info.name)

func hold_tower(tower_name: String) -> void:
	TowerManager.hold_tower(tower_name)

func _on_DeselectTower_pressed() -> void:
	TowerManager.stop_holding_tower()
"

[node name="PanelContainer" type="PanelContainer"]
anchor_right = 1.0
anchor_bottom = 1.0
theme = ExtResource( 1 )
script = SubResource( 1 )
__meta__ = {
"_edit_use_anchors_": false
}

[node name="MarginContainer" type="MarginContainer" parent="."]
margin_left = 7.0
margin_top = 7.0
margin_right = 1017.0
margin_bottom = 593.0
custom_constants/margin_right = 10
custom_constants/margin_top = 10
custom_constants/margin_left = 10
custom_constants/margin_bottom = 10

[node name="TowerList" type="VBoxContainer" parent="MarginContainer"]
margin_left = 10.0
margin_top = 10.0
margin_right = 1000.0
margin_bottom = 576.0

[node name="TowerHold" type="Label" parent="MarginContainer/TowerList"]
margin_right = 990.0
margin_bottom = 14.0
size_flags_vertical = 0
text = "Select tower:"
align = 1

[node name="Spacer" type="Control" parent="MarginContainer/TowerList"]
margin_top = 18.0
margin_right = 990.0
margin_bottom = 542.0
size_flags_vertical = 3
__meta__ = {
"_edit_use_anchors_": false
}

[node name="DeselectTower" type="Button" parent="MarginContainer/TowerList"]
margin_top = 546.0
margin_right = 990.0
margin_bottom = 566.0
text = "Deselect tower"
__meta__ = {
"_edit_use_anchors_": false
}
[connection signal="pressed" from="MarginContainer/TowerList/DeselectTower" to="." method="_on_DeselectTower_pressed"]
